"Id";"Designator";"Package";"Quantity";"Designation";"Supplier and ref";
1;"Q1";"DirectFET_MN";1;"Q_NMOS_DGS";;;
2;"Q3";"TO-39-3";1;"2N2219";;;
3;"Q2";"TO-92";1;"NPN";;;
4;"R1";"Potentiometer_ACP_CA9-H3,8_Horizontal";1;"10k";;;
5;"R2";"R_Axial_DIN0204_L3.6mm_D1.6mm_P7.62mm_Horizontal";1;"1.2";;;
6;"C1";"CP_Axial_L10.0mm_D4.5mm_P15.00mm_Horizontal";1;"C";;;
7;"C2";"CP_Axial_L10.0mm_D4.5mm_P15.00mm_Horizontal";1;"100n";;;
8;"C3";"CP_Axial_L10.0mm_D4.5mm_P15.00mm_Horizontal";1;"470u";;;
9;"D1";"Diode_Bridge_Diotec_MicroDil_3.0x3.0x1.8mm";1;"D_Zener";;;
10;"D2";"D_0603_1608Metric_Pad1.05x0.95mm_HandSolder";1;"DIODE";;;
11;"D3";"Diode_Bridge_Diotec_MicroDil_3.0x3.0x1.8mm";1;"BLUE LED";;;
12;"D4";"Diode_Bridge_Diotec_MicroDil_3.0x3.0x1.8mm";1;"RED LED";;;
13;"D5";"Diode_Bridge_Diotec_MicroDil_3.0x3.0x1.8mm";1;"GREEN LED";;;
14;"L1";"L_6.3x6.3_H3";1;"L_Core_Ferrite";;;
15;"R3";"R_0603_1608Metric_Pad1.05x0.95mm_HandSolder";1;"2.4k";;;
16;"R4";"R_0603_1608Metric_Pad1.05x0.95mm_HandSolder";1;"430";;;
17;"R5";"R_0603_1608Metric_Pad1.05x0.95mm_HandSolder";1;"62";;;
18;"R6";"R_0603_1608Metric_Pad1.05x0.95mm_HandSolder";1;"43";;;
19;"U1";"SuperSOT-3";1;"LM741";;;
